…
#prepare data for visualization of community 56 in order to display addresses (sender) in a readable way

#create color palette for groups
palette <- as_tibble(brewer.pal(6, 'Set3'))

vis_edge_list <- community_56_graph %>%
  activate(edges) %>%
  arrange(desc(to)) %>%
  as_tibble() %>%
  mutate(arrows = 'to') %>%
  rename(title = amount, value = weight)

vis_edge_list

## # A tibble: 86 × 5
##     from    to value    title arrows
##    <int> <int> <int>    <dbl> <chr> 
##  1    49    52     1 1200000  to    
##  2    17    50    34 1614047. to    
##  3    18    49    48 1403938. to    
##  4    18    48     8  898990. to    
##  5    18    47    20 1287273. to    
##  6    18    46     3  836676. to    
##  7    10    45    32  797796. to    
##  8    17    44    20 2348153. to    
##  9    17    43    53 1594078. to    
## 10    28    40    14 1570956. to    
## # … with 76 more rows
…
vis_node_list

## # A tibble: 54 × 6
##       id title                                         value group…¹ label color
##    <int> <chr>                                         <dbl>   <int> <chr> <chr>
##  1     1 0x0000000000007f150bd6f54c40a34d7c3d5e9f56 0.0598         2 ""    #FFF…
##  2     2 0xf7d9c9c06812c4a611a352ac82f638bdca6e09a8 0.0200         4 ""    #8DD…
##  3     3 0xd0effc6828972483db1c64106f71d6ad12606a53 0.0135         4 ""    #8DD…
##  4     4 0x2af33e93f68b8497bb535c492f5867c7e83f2bc4 0.000482       1 ""    #FB8…
##  5     5 0xe592427a0aece92de3edee1f18e0157c05861564 0.447          4 ""    #8DD…
##  6     6 0x6c2d992b7739dfb363a473cc4f28998b7f1f6de2 0.00219        2 ""    #FFF…
##  7     7 0x2a84e2bd2e961b1557d6e516ca647268b432cba4 0.00911        3 ""    #BEB…
##  8     8 0x4a137fd5e7a256ef08a7de531a17d0be0cc7b6b6 0.0165         3 ""    #BEB…
##  9     9 0x4d246be90c2f36730bb853ad41d0a189061192d3 0.0261         5 ""    #80B…
## 10    10 0xbf3f6477dbd514ef85b7d3ec6ac2205fd0962039 0.0105         1 ""    #FB8…
## # … with 44 more rows, and abbreviated variable name ¹​grouping
…
