…
Heatmap References

Article References

Introduction

During my thesis I found that cec-3 and cec-6 mutants display a somatic and germline transgene silencing phenotype. To investigate potential pathways that cec-3 and cec-6 may participate in, I reviewed the literature for other mutants with a somatic and germline transgene silencing phenotype. This was transcribed onto a table in order to compare mutants positive and/or negative for somatic and germline transgene silencing phenotypes.

Looking back, a chart may not have been the best way to visualize the literature review. It is difficult to scan a table by eye to spot wider trends or zero in on individual potential genes of interest. I believe an interactive heat map may have been a more concise and accessible way to showcase the data. In this report I will outline how I used heatmaply to reimagine my thesis figure as well as provide analysis of the visualization method and data.

Methodology

The literature review table was originally produced in excel using characters “+” and “-” to denote the presence or absence, respectively, of a phenotype of interest in each mutant recorded. Unfortunately, the format used was inconsistent due to my attempt to include additional information.

## # A tibble: 223 × 15
##    Class Mutan…¹ Descr…² Trans…³ Poten…⁴ Trans…⁵ Suppr…⁶ Suppr…⁷ Suppr…⁸ Suppr…⁹
##    <chr> <chr>   <chr>   <chr>   <chr>   <chr>   <chr>   <chr>   <chr>   <chr>  
##  1 "RNA… ""      ""      ""      ""      ""      ""      ""      ""      ""     
##  2 ""    "mut-1… "-"     " + (R… "N/A"   "nd"    "+ (RN… "nd"    " + (m… "nd"   
##  3 ""    "dcr-1" "DICER… " + (R… "N/A"   "nd"    "+ (RN… "nd"    "nd"    "+ (RN…
##  4 ""    "rde-4" "dsRNA… " - (R… "N/A"   " - (n… "+ (RN… "nd"    "-"     "nd"   
##  5 ""    "drh-1" "DEAD/… " + (R… "N/A"   " - (R… "+ (RN… " + (R… "nd"    "nd"   
##  6 ""    "gfl-1" "chrom… " - (R… "N/A"   "nd"    "+ (RN… "nd"    "nd"    "nd"   
##  7 ""    "rde-1" "Piwi … " - (n… "N/A"   " - (n… "+ (RN… "nd"    "nd"    "nd"   
##  8 ""    "rsd-2" "requi… " - (R… "N/A"   "nd"    "+ (RN… "nd"    "nd"    "nd"   
##  9 ""    "smg-2" "NMD p… " - (R… "N/A"   "nd"    "+ (RN… "nd"    "nd"    "nd"   
## 10 ""    "mut-7" "3'-5'… " + (R… "N/A"   "nd"    "+ (RN… "nd"    " + (m… "nd"   
## # … with 213 more rows, 5 more variables:
## #   Enhanced.RNAi.phenotype..G...germline..S...somatic. <chr>,
## #   Enhanced.Nuclear.RNAi.pneotype..G...germline..S...somatic. <chr>,
## #   RDE.phenotype..G...germline..S...somatic. <chr>, Method <chr>,
## #   Reference <chr>, and abbreviated variable names
## #   ¹​Mutant..or.if.RNAi...predicted.gene., ²​Description,
## #   ³​Transgene.Germline.Desilencing, …
…
